<?xml version="1.0" encoding="UTF-8" standalone="no"?>
<svg width="193px" height="45px" viewBox="0 0 193 45" version="1.1" xmlns="http://www.w3.org/2000/svg" xmlns:xlink="http://www.w3.org/1999/xlink" xmlns:sketch="http://www.bohemiancoding.com/sketch/ns">
    <!-- Generator: Sketch 3.4.4 (17249) - http://www.bohemiancoding.com/sketch -->
    <title>logos copy</title>
    <desc>Created with Sketch.</desc>
    <defs></defs>
    <g id="Home-new---clean" stroke="none" stroke-width="1" fill="none" fill-rule="evenodd" sketch:type="MSPage">
        <g id="Group" sketch:type="MSLayerGroup" transform="translate(-912.000000, -642.000000)">
            <g transform="translate(716.000000, 296.000000)" id="logos-copy">
                <g transform="translate(196.000000, 345.000000)">
                    <g id="18007" transform="translate(0.000000, 1.000000)" fill="#000000" sketch:type="MSShapeGroup">
                        <g id="Your_Icon">
                            <path d="M26.0970297,34.9467391 L1.00049505,34.9467391 C0.571287129,34.9467391 0.223762376,34.6192547 0.223762376,34.2158385 L0.223762376,4.50093168 C0.223762376,4.09704969 0.571287129,3.76909938 1.00049505,3.76909938 C1.42970297,3.76909938 1.77821782,4.09704969 1.77821782,4.50093168 L1.77821782,33.4840062 L26.0975248,33.4840062 C26.5267327,33.4840062 26.8747525,33.8114907 26.8747525,34.2153727 C26.8742574,34.6187888 26.5262376,34.9467391 26.0970297,34.9467391 L26.0970297,34.9467391 Z" id="Shape"></path>
                            <path d="M48.9514851,34.9467391 L46.0935644,34.9467391 C45.6643564,34.9467391 45.3168317,34.6192547 45.3168317,34.2158385 C45.3168317,33.8119565 45.6643564,33.484472 46.0935644,33.484472 L48.1742574,33.484472 L48.1742574,1.62065217 L1.42128713,1.62065217 C0.992079208,1.62065217 0.643564356,1.29363354 0.643564356,0.889751553 C0.643564356,0.485869565 0.992079208,0.157919255 1.42128713,0.157919255 L48.9514851,0.157919255 C49.380198,0.157919255 49.7282178,0.485869565 49.7282178,0.889751553 L49.7282178,34.2158385 C49.7282178,34.6187888 49.380198,34.9467391 48.9514851,34.9467391 L48.9514851,34.9467391 Z" id="Shape"></path>
                            <path d="M28.5054455,31.8335404 L4.8549505,31.8335404 C4.49653465,31.8335404 4.20643564,31.5600932 4.20594059,31.2223602 L4.18514851,3.97360248 C4.18514851,3.81102484 4.25346535,3.65590062 4.37574257,3.54130435 C4.4970297,3.42624224 4.66188119,3.36195652 4.83415842,3.36195652 L45.6925743,3.36195652 C46.0514851,3.36195652 46.3420792,3.63540373 46.3420792,3.97267081 L46.3420792,31.2223602 C46.3420792,31.3858696 46.2727723,31.5414596 46.1490099,31.6560559 C46.0257426,31.7725155 45.8554455,31.843323 45.6851485,31.8335404 L43.5559406,31.8107143 C43.1970297,31.8065217 42.9113861,31.5298137 42.9143564,31.1930124 C42.9188119,30.8557453 43.1970297,30.5636646 43.5707921,30.5892857 L45.0435644,30.6046584 L45.0435644,4.58338509 L5.48316832,4.58338509 L5.50346535,30.6121118 L28.5054455,30.6121118 C28.8643564,30.6121118 29.1549505,30.885559 29.1549505,31.2228261 C29.1549505,31.5600932 28.8643564,31.8335404 28.5054455,31.8335404 L28.5054455,31.8335404 Z" id="Shape"></path>
                            <path d="M32.5227723,9.70108696 L9.90841584,9.70108696 C9.48217822,9.70108696 9.13712871,9.37639752 9.13712871,8.97531056 C9.13712871,8.5742236 9.48217822,8.25 9.90841584,8.25 L32.5227723,8.25 C32.9490099,8.25 33.2940594,8.5742236 33.2940594,8.97531056 C33.2940594,9.37639752 32.949505,9.70108696 32.5227723,9.70108696 L32.5227723,9.70108696 Z" id="Shape"></path>
                            <path d="M25.8410891,15.7453416 L9.90841584,15.7453416 C9.48217822,15.7453416 9.13712871,15.421118 9.13712871,15.0200311 C9.13712871,14.6189441 9.48217822,14.2942547 9.90841584,14.2942547 L25.8410891,14.2942547 C26.2668317,14.2942547 26.6123762,14.6189441 26.6123762,15.0200311 C26.6123762,15.421118 26.2673267,15.7453416 25.8410891,15.7453416 L25.8410891,15.7453416 Z" id="Shape"></path>
                            <path d="M25.8410891,24.9950311 L9.90841584,24.9950311 C9.48217822,24.9950311 9.13712871,24.6708075 9.13712871,24.2697205 C9.13712871,23.8686335 9.48217822,23.5439441 9.90841584,23.5439441 L25.8410891,23.5439441 C26.2668317,23.5439441 26.6123762,23.8681677 26.6123762,24.2697205 C26.6123762,24.6708075 26.2673267,24.9950311 25.8410891,24.9950311 L25.8410891,24.9950311 Z" id="Shape"></path>
                            <path d="M31.6891089,42.1048137 C31.4405941,42.1048137 31.2069307,41.9930124 31.0623762,41.8020186 L28.5673267,38.5257764 L23.9470297,39.0759317 C23.6509901,39.1127329 23.3693069,38.9869565 23.2079208,38.7554348 C23.0460396,38.5257764 23.0371287,38.2281056 23.1851485,37.9900621 L28.2257426,29.8597826 C28.439604,29.5127329 28.9138614,29.3934783 29.279703,29.598913 C29.6470297,29.8001553 29.7722772,30.2450311 29.5569307,30.5906832 L25.3039604,37.4515528 L28.8311881,37.032764 C29.1128713,36.9959627 29.390099,37.1147516 29.5539604,37.3304348 L31.6108911,40.0322981 L35.0623762,34.2684783 C35.2717822,33.9167702 35.7460396,33.7947205 36.1118812,33.9917702 C36.4836634,34.1888199 36.6148515,34.6309006 36.4054455,34.9793478 L32.3608911,41.7354037 C32.2311881,41.9524845 31.9935644,42.0913043 31.7316832,42.103882 C31.7158416,42.1048137 31.7024752,42.1048137 31.6891089,42.1048137 L31.6891089,42.1048137 Z" id="Shape"></path>
                            <path d="M41.830198,42.5864907 C41.5935644,42.5864907 41.3678218,42.484472 41.2207921,42.3046584 L35.1232673,34.8857143 C34.8633663,34.5694099 34.9247525,34.113354 35.2618812,33.8678571 C35.5960396,33.6246894 36.0806931,33.6782609 36.3430693,33.9982919 L41.479703,40.2470497 L42.3693069,37.0187888 C42.4415842,36.7611801 42.6569307,36.5613354 42.9311881,36.4975155 L46.3648515,35.7 L42.0222772,30.5874224 C41.7574257,30.2743789 41.809901,29.818323 42.1425743,29.567236 C42.4787129,29.3194099 42.9613861,29.3687888 43.2267327,29.6809006 L48.3217822,35.6790373 C48.4856436,35.8732919 48.5341584,36.1313665 48.449505,36.3666149 C48.3653465,36.6004658 48.1589109,36.7774845 47.9044554,36.8371118 L43.7470297,37.8032609 L42.5772277,42.0442547 C42.5019802,42.3121118 42.2732673,42.5161491 41.9856436,42.5729814 C41.9341584,42.5822981 41.8816832,42.5864907 41.830198,42.5864907 L41.830198,42.5864907 Z" id="Shape"></path>
                            <path d="M35.7663366,35.0296584 C31.2490099,35.0296584 27.5747525,31.5726708 27.5747525,27.3232919 C27.5747525,23.0729814 31.2490099,19.6150621 35.7663366,19.6150621 C40.2836634,19.6150621 43.9579208,23.0729814 43.9579208,27.3232919 C43.9579208,31.5726708 40.2836634,35.0296584 35.7663366,35.0296584 L35.7663366,35.0296584 Z M35.7663366,21.0661491 C32.1,21.0661491 29.1168317,23.8728261 29.1168317,27.3237578 C29.1168317,30.7723602 32.099505,33.5795031 35.7663366,33.5795031 C39.4331683,33.5795031 42.4163366,30.7728261 42.4163366,27.3237578 C42.4163366,23.8728261 39.4331683,21.0661491 35.7663366,21.0661491 L35.7663366,21.0661491 Z" id="Shape"></path>
                        </g>
                    </g>
                    <g id="32451" transform="translate(78.000000, 0.000000)">
                        <g id="Layer_1"></g>
                        <g id="Wrench"></g>
                        <g id="printer" transform="translate(11.000000, 2.392857)" fill="#000000" sketch:type="MSShapeGroup">
                            <path d="M27.5955,13.0123571 C27.5955,5.83713571 21.4965,0 13.999,0 C6.503,0 0.4045,5.83713571 0.4045,13.0123571 C0.4045,17.8574143 3.1875,22.0894214 7.3015,24.3291357 L4.0985,41.7161143 L8.675,39.3213429 L12.1165,43.0714286 L13.782,34.0316929 L15.447,43.07095 L18.89,39.3213429 L23.467,41.7161143 L20.3015,24.5377929 C24.6325,22.3593357 27.5955,18.0119929 27.5955,13.0123571 L27.5955,13.0123571 Z M25.3545,17.0677714 L21.7835,15.0941429 C21.9575,14.4930571 22.0595,13.8637357 22.0775,13.2124 L26.085,13.8881429 C25.999,14.9998643 25.7465,16.0651643 25.3545,17.0677714 L25.3545,17.0677714 Z M26.131,13.0123571 C26.131,13.0434643 26.1255,13.0760071 26.1255,13.10855 L22.056,12.4227571 C22.0045,11.77525 21.873,11.1488 21.6645,10.5553714 L25.672,9.87771429 C25.9645,10.8764929 26.131,11.9240857 26.131,13.0123571 L26.131,13.0123571 Z M23.844,6.24392143 C24.504,7.12497143 25.037,8.09599286 25.423,9.13305714 L21.361,9.82124286 C21.0835,9.23547143 20.7345,8.68798571 20.322,8.19170714 L23.844,6.24392143 L23.844,6.24392143 Z M13.999,19.9104857 C10.0205,19.9104857 6.7935,16.8222643 6.7935,13.0128357 C6.7935,9.20292857 10.0205,6.11518571 13.999,6.11518571 C17.98,6.11518571 21.207,9.20340714 21.207,13.0128357 C21.2065,16.8222643 17.98,19.9104857 13.999,19.9104857 L13.999,19.9104857 Z M17.87,19.8095071 L19.2595,23.4643571 C18.2495,23.9300071 17.164,24.2664429 16.0215,24.4492571 L16.0215,20.5000857 C16.672,20.3388071 17.293,20.11005 17.87,19.8095071 L17.87,19.8095071 Z M12.411,20.6015429 L11.0205,24.2578286 C9.903,23.9855214 8.8455,23.5682071 7.877,23.0235929 L10.529,19.9951929 C11.1215,20.2660643 11.7485,20.4756786 12.411,20.6015429 L12.411,20.6015429 Z M23.357,5.6213 L19.777,7.60115 C19.311,7.14363571 18.785,6.74833571 18.214,6.41429286 L20.8365,3.42130714 C21.78,4.04057857 22.6285,4.78092857 23.357,5.6213 L23.357,5.6213 Z M20.1405,3.00973571 L17.4885,6.0367 C16.8935,5.76439286 16.264,5.55095 15.5985,5.42412857 L16.988,1.76784286 C18.11,2.0435 19.1685,2.46225 20.1405,3.00973571 L20.1405,3.00973571 Z M12.787,1.45916429 C13.1855,1.42087857 13.5905,1.40077857 13.999,1.40077857 C14.75,1.40077857 15.4795,1.47495714 16.192,1.6013 L14.781,5.30927143 C14.524,5.28390714 14.2635,5.27194286 13.999,5.27194286 C13.586,5.27194286 13.1845,5.31118571 12.787,5.36622143 L12.787,1.45916429 L12.787,1.45916429 Z M11.9775,1.57354286 L11.9775,5.52271429 C11.323,5.68638571 10.6985,5.91562143 10.119,6.21951429 L8.7295,2.56562143 C9.743,2.09614286 10.8315,1.75875 11.9775,1.57354286 L11.9775,1.57354286 Z M8.0055,2.92407143 L9.4175,6.63682857 C8.8665,7.00006429 8.368,7.43077857 7.928,7.90982857 L5.3085,4.91971429 C6.101,4.13868571 7.0115,3.46772857 8.0055,2.92407143 L8.0055,2.92407143 Z M4.76,5.49830714 L7.414,8.52718571 C7.03,9.045 6.7115,9.60684286 6.468,10.20745 L2.9395,8.25679286 C3.412,7.25466429 4.025,6.32719286 4.76,5.49830714 L4.76,5.49830714 Z M2.634,8.98087143 L6.2085,10.95785 C6.0355,11.5613286 5.9355,12.1920857 5.92,12.8453357 L1.912,12.1672 C1.9965,11.0540429 2.246,9.98730714 2.634,8.98087143 L2.634,8.98087143 Z M1.869,13.0123571 C1.869,12.9893857 1.872,12.96785 1.872,12.9458357 L5.945,13.6335429 C5.9985,14.2820071 6.1355,14.9051071 6.3465,15.50045 L2.3365,16.1766714 C2.037,15.1683214 1.869,14.1106786 1.869,13.0123571 L1.869,13.0123571 Z M4.1705,19.7994571 C3.508,18.9236714 2.974,17.9564786 2.587,16.9189357 L6.652,16.2321857 C6.931,16.8155643 7.279,17.3587429 7.6935,17.8535857 L4.1705,19.7994571 L4.1705,19.7994571 Z M7.1795,22.6129786 C6.237,21.99945 5.388,21.2600571 4.661,20.4230357 L8.241,18.4455786 C8.707,18.89735 9.233,19.2883429 9.803,19.6199929 L7.1795,22.6129786 L7.1795,22.6129786 Z M13.1165,30.4203929 L11.3,40.2813571 L8.967,37.7387071 L5.862,39.3634571 L8.523,24.9187357 C9.7005,25.4169286 10.9645,25.75815 12.2875,25.9184714 C12.9195,26.0012643 13.8295,26.0228 13.9265,26.0232786 L13.1165,30.4203929 L13.1165,30.4203929 Z M11.815,24.4253286 L13.2255,20.7149643 C13.4815,20.7388929 13.7375,20.7522929 13.999,20.7522929 C14.412,20.7522929 14.8165,20.7135286 15.212,20.6565786 L15.212,24.5641143 C14.8125,24.6028786 14.4095,24.6220214 13.999,24.6220214 C13.2515,24.6225 12.5245,24.5502357 11.815,24.4253286 L11.815,24.4253286 Z M21.7025,39.3639357 L18.598,37.7391857 L16.2635,40.2823143 L14.4475,30.4203929 L15.268,25.9668071 C16.6005,25.8481214 17.877,25.54375 19.071,25.0828857 L21.7025,39.3639357 L21.7025,39.3639357 Z M19.983,23.1044714 L18.571,19.39315 C19.121,19.0327857 19.617,18.6054214 20.056,18.1306786 L22.6755,21.1179214 C21.8835,21.8956 20.9765,22.5632071 19.983,23.1044714 L19.983,23.1044714 Z M20.571,17.5123643 C20.955,16.9998143 21.276,16.4403643 21.522,15.8431071 L25.0465,17.7923286 C24.575,18.7911071 23.961,19.7171429 23.225,20.5407643 L20.571,17.5123643 L20.571,17.5123643 Z" id="Shape"></path>
                        </g>
                    </g>
                    <g id="132017" transform="translate(156.000000, 1.000000)" fill="#000000" sketch:type="MSShapeGroup">
                        <g id="Group">
                            <path d="M36.26,0 L0.74,0 C0.296,0 0,0.281904762 0,0.704761905 L0,41.5809524 C0,42.0038095 0.296,42.2857143 0.74,42.2857143 L36.26,42.2857143 C36.704,42.2857143 37,42.0038095 37,41.5809524 L37,0.704761905 C37,0.281904762 36.704,0 36.26,0 L36.26,0 Z M35.52,40.8761905 L1.48,40.8761905 L1.48,1.40952381 L35.52,1.40952381 L35.52,40.8761905 L35.52,40.8761905 Z" id="Shape"></path>
                            <path d="M25.086,27.6266667 L25.086,27.6266667 C25.16,27.1333333 25.16,26.7104762 25.16,26.2171429 C25.16,22.9047619 22.348,20.2266667 18.87,20.2266667 C15.392,20.2266667 12.58,22.9047619 12.58,26.2171429 C12.58,26.7104762 12.654,27.1333333 12.728,27.5561905 L12.654,27.6266667 L7.104,36.4361905 C6.956,36.7180952 6.956,37 7.178,37.2114286 C7.4,37.4228571 7.696,37.5638095 7.992,37.4228571 L13.098,35.8019048 L16.502,39.0438095 C16.65,39.1847619 16.798,39.2552381 17.02,39.2552381 L17.242,39.2552381 C17.464,39.1847619 17.686,38.9733333 17.76,38.7619048 L18.87,34.4628571 L19.98,38.7619048 C20.054,38.9733333 20.276,39.1847619 20.498,39.2552381 L20.72,39.2552381 C20.942,39.2552381 21.09,39.1847619 21.238,39.0438095 L24.642,35.8019048 L29.748,37.4228571 C30.044,37.4933333 30.34,37.4228571 30.562,37.2114286 C30.784,37 30.784,36.647619 30.636,36.4361905 L25.086,27.6266667 L25.086,27.6266667 Z M18.944,21.6361905 C21.608,21.6361905 23.754,23.68 23.754,26.2171429 C23.754,28.7542857 21.608,30.7980952 18.944,30.7980952 C16.28,30.7980952 14.134,28.7542857 14.134,26.2171429 C14.134,23.7504762 16.28,21.6361905 18.944,21.6361905 L18.944,21.6361905 Z M16.65,37.2114286 L13.912,34.5333333 C13.69,34.3219048 13.394,34.2514286 13.172,34.392381 L9.546,35.52 L13.542,29.1771429 C14.504,30.727619 16.132,31.8552381 18.056,32.1371429 L16.65,37.2114286 L16.65,37.2114286 Z M24.716,34.392381 C24.42,34.3219048 24.124,34.392381 23.976,34.5333333 L21.164,37.2114286 L19.832,32.1371429 C21.756,31.8552381 23.384,30.727619 24.346,29.1771429 L28.342,35.52 L24.716,34.392381 L24.716,34.392381 Z" id="Shape"></path>
                            <path d="M11.1,7.04761905 L25.9,7.04761905 C26.344,7.04761905 26.64,6.76571429 26.64,6.34285714 C26.64,5.92 26.344,5.63809524 25.9,5.63809524 L11.1,5.63809524 C10.656,5.63809524 10.36,5.92 10.36,6.34285714 C10.36,6.76571429 10.656,7.04761905 11.1,7.04761905 L11.1,7.04761905 Z" id="Shape"></path>
                            <path d="M25.9,17.6190476 C26.344,17.6190476 26.64,17.3371429 26.64,16.9142857 C26.64,16.4914286 26.344,16.2095238 25.9,16.2095238 L11.1,16.2095238 C10.656,16.2095238 10.36,16.4914286 10.36,16.9142857 C10.36,17.3371429 10.656,17.6190476 11.1,17.6190476 L25.9,17.6190476 L25.9,17.6190476 Z" id="Shape"></path>
                            <path d="M5.92,11.9809524 L31.82,11.9809524 C32.264,11.9809524 32.56,11.6990476 32.56,11.2761905 C32.56,10.8533333 32.264,10.5714286 31.82,10.5714286 L5.92,10.5714286 C5.476,10.5714286 5.18,10.8533333 5.18,11.2761905 C5.18,11.6990476 5.476,11.9809524 5.92,11.9809524 L5.92,11.9809524 Z" id="Shape"></path>
                        </g>
                    </g>
                    <rect id="Rectangle-65" fill="#BCA25A" sketch:type="MSShapeGroup" x="32.2000122" y="24.6999512" width="7" height="7" rx="40"></rect>
                    <rect id="Rectangle-65-Copy" fill="#BCA25A" sketch:type="MSShapeGroup" x="99.5" y="12" width="7" height="7" rx="40"></rect>
                    <rect id="Rectangle-65-Copy-2" fill="#BCA25A" sketch:type="MSShapeGroup" x="172.300049" y="24.6999512" width="5" height="5" rx="40"></rect>
                </g>
            </g>
        </g>
    </g>
</svg>